{
    "ids": {
        "Property": 10,
        "Waitlist": 8
    },
    "models": {
        "Property": {
            "1": "{\"id\":\"1\",\"name\":\"Willow Pointe\",\"numBedrooms\":2,\"city\":\"Minneapolis\",\"state\":\"Minnesota\",\"waitlistId\":\"1\"}",
            "2": "{\"id\":\"2\",\"name\":\"Paradise Court\",\"numBedrooms\":1,\"city\":\"Minneapolis\",\"state\":\"Minnesota\",\"waitlistId\":\"1\"}",
            "3": "{\"id\":\"3\",\"name\":\"University Village\",\"numBedrooms\":3,\"city\":\"St. Paul\",\"state\":\"Minnesota\",\"waitlistId\":\"2\"}",
            "4": "{\"id\":\"4\",\"name\":\"Paradise Gardens\",\"numBedrooms\":2,\"city\":\"Duluth\",\"state\":\"Minnesota\",\"waitlistId\":\"3\"}",
            "5": "{\"id\":\"5\",\"name\":\"Pine Creek\",\"numBedrooms\":2,\"city\":\"Golden Valley\",\"state\":\"Minnesota\",\"waitlistId\":\"4\"}",
            "6": "{\"id\":\"6\",\"name\":\"Summer Village\",\"numBedrooms\":3,\"city\":\"Golden Valley\",\"state\":\"Minnesota\",\"waitlistId\":\"4\"}",
            "7": "{\"id\":\"7\",\"name\":\"Autumn Estates\",\"numBedrooms\":2,\"city\":\"Maplewood\",\"state\":\"Minnesota\",\"waitlistId\":\"5\"}",
            "8": "{\"id\":\"8\",\"name\":\"University Gardens\",\"numBedrooms\":1,\"city\":\"Roseville\",\"state\":\"Minnesota\",\"waitlistId\":\"6\"}",
            "9": "{\"id\":\"9\",\"name\":\"University Gardens\",\"numBedrooms\":1,\"city\":\"Brooklyn Park\",\"state\":\"Minnesota\",\"waitlistId\":\"7\"}"
        },
        "Waitlist": {
            "1": "{\"id\":1,\"waitlistName\":\"University Oaks Waitlist\",\"senior\":false,\"disability\":true,\"homeless\":true,\"isOpen\":true,\"applicantCount\":38,\"avgWaitTimeMonths\":6}",
            "2": "{\"id\":2,\"waitlistName\":\"Royal Crossing Waitlist\",\"senior\":false,\"disability\":true,\"homeless\":false,\"isOpen\":true,\"applicantCount\":100,\"avgWaitTimeMonths\":24}",
            "3": "{\"id\":3,\"waitlistName\":\"Willow Heights Waitlist\",\"senior\":true,\"disability\":false,\"homeless\":true,\"isOpen\":false,\"applicantCount\":0,\"avgWaitTimeMonths\":18}",
            "4": "{\"id\":4,\"waitlistName\":\"Summer Village Waitlist\",\"senior\":false,\"disability\":false,\"homeless\":false,\"isOpen\":false,\"applicantCount\":0,\"avgWaitTimeMonths\":27}",
            "5": "{\"id\":5,\"waitlistName\":\"Eagle Gardens Waitlist\",\"senior\":true,\"disability\":false,\"homeless\":false,\"isOpen\":true,\"applicantCount\":0,\"avgWaitTimeMonths\":11}",
            "6": "{\"id\":6,\"waitlistName\":\"Paradise Acres Waitlist\",\"senior\":true,\"disability\":true,\"homeless\":true,\"isOpen\":true,\"applicantCount\":0,\"avgWaitTimeMonths\":4,\"properties\":[]}",
            "7": "{\"id\":7,\"waitlistName\":\"Oak Village Waitlist\",\"senior\":false,\"disability\":false,\"homeless\":true,\"isOpen\":true,\"applicantCount\":0,\"avgWaitTimeMonths\":12,\"properties\":[]}"
        }
    }
}
